[2022-12-27T14:02:42.830+0000] {taskinstance.py:1087} INFO - Dependencies all met for <TaskInstance: dag-etl-mongo-mysql.extract manual__2022-12-27T14:02:41.432150+00:00 [queued]>
[2022-12-27T14:02:42.837+0000] {taskinstance.py:1087} INFO - Dependencies all met for <TaskInstance: dag-etl-mongo-mysql.extract manual__2022-12-27T14:02:41.432150+00:00 [queued]>
[2022-12-27T14:02:42.838+0000] {taskinstance.py:1283} INFO - 
--------------------------------------------------------------------------------
[2022-12-27T14:02:42.838+0000] {taskinstance.py:1284} INFO - Starting attempt 1 of 3
[2022-12-27T14:02:42.839+0000] {taskinstance.py:1285} INFO - 
--------------------------------------------------------------------------------
[2022-12-27T14:02:42.852+0000] {taskinstance.py:1304} INFO - Executing <Task(PythonOperator): extract> on 2022-12-27 14:02:41.432150+00:00
[2022-12-27T14:02:42.864+0000] {standard_task_runner.py:55} INFO - Started process 1806 to run task
[2022-12-27T14:02:42.868+0000] {standard_task_runner.py:82} INFO - Running: ['***', 'tasks', 'run', 'dag-etl-mongo-mysql', 'extract', 'manual__2022-12-27T14:02:41.432150+00:00', '--job-id', '38', '--raw', '--subdir', 'DAGS_FOLDER/app.py', '--cfg-path', '/tmp/tmpk2rp0k4l']
[2022-12-27T14:02:42.870+0000] {standard_task_runner.py:83} INFO - Job 38: Subtask extract
[2022-12-27T14:02:42.926+0000] {task_command.py:389} INFO - Running <TaskInstance: dag-etl-mongo-mysql.extract manual__2022-12-27T14:02:41.432150+00:00 [running]> on host e2c7977f37fb
[2022-12-27T14:02:42.974+0000] {taskinstance.py:1513} INFO - Exporting the following env vars:
AIRFLOW_CTX_DAG_OWNER=***
AIRFLOW_CTX_DAG_ID=dag-etl-mongo-mysql
AIRFLOW_CTX_TASK_ID=extract
AIRFLOW_CTX_EXECUTION_DATE=2022-12-27T14:02:41.432150+00:00
AIRFLOW_CTX_TRY_NUMBER=1
AIRFLOW_CTX_DAG_RUN_ID=manual__2022-12-27T14:02:41.432150+00:00
[2022-12-27T14:02:42.983+0000] {logging_mixin.py:137} INFO - Error connecting to MongoDB -- The conn_id `mongo_default` isn't defined
[2022-12-27T14:02:42.984+0000] {logging_mixin.py:137} INFO - {"1001": 301.27, "1002": 433.21, "1003": 502.22}
[2022-12-27T14:02:42.985+0000] {logging_mixin.py:137} INFO - test
[2022-12-27T14:02:42.999+0000] {python.py:177} INFO - Done. Returned value was: None
[2022-12-27T14:02:43.008+0000] {taskinstance.py:1327} INFO - Marking task as SUCCESS. dag_id=dag-etl-mongo-mysql, task_id=extract, execution_date=20221227T140241, start_date=20221227T140242, end_date=20221227T140243
[2022-12-27T14:02:43.042+0000] {local_task_job.py:159} INFO - Task exited with return code 0
[2022-12-27T14:02:43.063+0000] {taskinstance.py:2582} INFO - 1 downstream tasks scheduled from follow-on schedule check
