[2022-12-27T15:16:37.644+0000] {taskinstance.py:1087} INFO - Dependencies all met for <TaskInstance: dag-etl-mongo-mysql.transform manual__2022-12-27T15:16:04.897248+00:00 [queued]>
[2022-12-27T15:16:37.651+0000] {taskinstance.py:1087} INFO - Dependencies all met for <TaskInstance: dag-etl-mongo-mysql.transform manual__2022-12-27T15:16:04.897248+00:00 [queued]>
[2022-12-27T15:16:37.651+0000] {taskinstance.py:1283} INFO - 
--------------------------------------------------------------------------------
[2022-12-27T15:16:37.652+0000] {taskinstance.py:1284} INFO - Starting attempt 1 of 3
[2022-12-27T15:16:37.652+0000] {taskinstance.py:1285} INFO - 
--------------------------------------------------------------------------------
[2022-12-27T15:16:37.660+0000] {taskinstance.py:1304} INFO - Executing <Task(PythonOperator): transform> on 2022-12-27 15:16:04.897248+00:00
[2022-12-27T15:16:37.664+0000] {standard_task_runner.py:55} INFO - Started process 4889 to run task
[2022-12-27T15:16:37.668+0000] {standard_task_runner.py:82} INFO - Running: ['***', 'tasks', 'run', 'dag-etl-mongo-mysql', 'transform', 'manual__2022-12-27T15:16:04.897248+00:00', '--job-id', '143', '--raw', '--subdir', 'DAGS_FOLDER/app.py', '--cfg-path', '/tmp/tmpn18k_axx']
[2022-12-27T15:16:37.669+0000] {standard_task_runner.py:83} INFO - Job 143: Subtask transform
[2022-12-27T15:16:37.720+0000] {task_command.py:389} INFO - Running <TaskInstance: dag-etl-mongo-mysql.transform manual__2022-12-27T15:16:04.897248+00:00 [running]> on host 93602b2aadda
[2022-12-27T15:16:37.770+0000] {taskinstance.py:1513} INFO - Exporting the following env vars:
AIRFLOW_CTX_DAG_OWNER=***
AIRFLOW_CTX_DAG_ID=dag-etl-mongo-mysql
AIRFLOW_CTX_TASK_ID=transform
AIRFLOW_CTX_EXECUTION_DATE=2022-12-27T15:16:04.897248+00:00
AIRFLOW_CTX_TRY_NUMBER=1
AIRFLOW_CTX_DAG_RUN_ID=manual__2022-12-27T15:16:04.897248+00:00
[2022-12-27T15:16:37.790+0000] {python.py:177} INFO - Done. Returned value was: None
[2022-12-27T15:16:37.798+0000] {taskinstance.py:1327} INFO - Marking task as SUCCESS. dag_id=dag-etl-mongo-mysql, task_id=transform, execution_date=20221227T151604, start_date=20221227T151637, end_date=20221227T151637
[2022-12-27T15:16:37.841+0000] {local_task_job.py:159} INFO - Task exited with return code 0
[2022-12-27T15:16:37.858+0000] {taskinstance.py:2582} INFO - 1 downstream tasks scheduled from follow-on schedule check
